Exploratory Data Analysis in R – Machine Learning in Business
…
# A tibble: 3 × 2
   YEAR     n
  <dbl> <int>
1  2014  2753
2  2015  4848
3  2016  7366

# Number of Invoices 
product %>% 
  count(INVOICE_NO)

# A tibble: 13,389 × 2
   INVOICE_NO     n
   <chr>      <int>
 1 52389          1
 2 52390          1
 3 52391          1
 4 52392          1
 5 52393          1
 6 52394          1
 7 52395          1
 8 52396          1
 9 52397          1
10 52398          1
# ℹ 13,379 more rows
…
product %>%
  count(PRODUCT_ID, GENDER) %>%
  arrange(-n) %>% 
  pivot_wider(
    names_from = GENDER,
    values_from = n
  ) %>% 
  rename_all(toupper) %>% 
  rename_at(vars(c("MALE","FEMALE")), ~paste0(.x,"_SALE")) %>% 
  mutate(
    TOTAL_SALE = MALE_SALE + FEMALE_SALE
  ) %>% # 6th Verb
  arrange(-TOTAL_SALE)

# A tibble: 96 × 4
   PRODUCT_ID MALE_SALE FEMALE_SALE TOTAL_SALE
   <chr>          <int>       <int>      <int>
 1 2190             132          75        207
 2 2226             123          81        204
 3 2213             114          90        204
 4 2192             135          66        201
 5 2158             120          78        198
 6 2172             114          75        189
 7 2179             102          87        189
 8 2239              87         102        189
 9 2225             117          69        186
10 2183             123          60        183
# ℹ 86 more rows
…
